module unico

go 1.15

require (
	github.com/alecthomas/template v0.0.0-20190718012654-fb15b899a751
	github.com/cpuguy83/go-md2man/v2 v2.0.0 // indirect
	github.com/gin-gonic/gin v1.6.3
	github.com/go-gormigrate/gormigrate/v2 v2.0.0
	github.com/go-openapi/spec v0.20.3 // indirect
	github.com/go-playground/validator/v10 v10.4.1
	github.com/gofrs/uuid v4.0.0+incompatible
	github.com/lib/pq v1.3.0
	github.com/mailru/easyjson v0.7.7 // indirect
	github.com/russross/blackfriday/v2 v2.1.0 // indirect
	github.com/sirupsen/logrus v1.8.0
	github.com/swaggo/files v0.0.0-20190704085106-630677cd5c14
	github.com/swaggo/gin-swagger v1.3.0
	github.com/swaggo/swag v1.7.0
	golang.org/x/net v0.0.0-20210226172049-e18ecbb05110 // indirect
	golang.org/x/sys v0.0.0-20210303074136-134d130e1a04 // indirect
	golang.org/x/tools v0.1.0 // indirect
	gorm.io/driver/postgres v1.0.8
	gorm.io/gorm v1.20.12
)
