{
    "swagger": "2.0",
    "info": {
        "contact": {}
    },
    "paths": {
        "/district/{subprefecture}": {
            "get": {
                "description": "Get all the existing District by Subprefecture",
                "consumes": [
                    "application/json"
                ],
                "produces": [
                    "application/json"
                ],
                "summary": "List existing District by Subprefecture",
                "parameters": [
                    {
                        "type": "string",
                        "description": "Subprefecture ID",
                        "name": "subprefecture",
                        "in": "path",
                        "required": true
                    }
                ],
                "responses": {
                    "200": {
                        "description": "OK",
                        "schema": {
                            "type": "array",
                            "items": {
                                "$ref": "#/definitions/entities.District"
                            }
                        }
                    },
                    "500": {
                        "description": "Internal Server Error",
                        "schema": {
                            "$ref": "#/definitions/rest.Response"
                        }
                    }
                }
            }
        },
        "/import-data": {
            "post": {
                "description": "Import CSV Data",
                "consumes": [
                    "multipart/form-data"
                ],
                "produces": [
                    "application/json"
                ],
                "summary": "Import CSV Data",
                "parameters": [
                    {
                        "type": "file",
                        "description": "File Path",
                        "name": "file",
                        "in": "formData",
                        "required": true
                    }
                ],
                "responses": {
                    "200": {
                        "description": ""
                    },
                    "500": {
                        "description": "Internal Server Error",
                        "schema": {
                            "$ref": "#/definitions/rest.Response"
                        }
                    }
                }
            }
        },
        "/market": {
            "get": {
                "description": "Get all the existing market",
                "consumes": [
                    "application/json"
                ],
                "produces": [
                    "application/json"
                ],
                "summary": "List existing market",
                "responses": {
                    "200": {
                        "description": "OK",
                        "schema": {
                            "type": "array",
                            "items": {
                                "$ref": "#/definitions/entities.Market"
                            }
                        }
                    },
                    "500": {
                        "description": "Internal Server Error",
                        "schema": {
                            "$ref": "#/definitions/rest.Response"
                        }
                    }
                }
            },
            "put": {
                "description": "Create a new Market",
                "consumes": [
                    "application/json"
                ],
                "produces": [
                    "application/json"
                ],
                "summary": "Create Market",
                "parameters": [
                    {
                        "description": "Update Market",
                        "name": "market",
                        "in": "body",
                        "required": true,
                        "schema": {
                            "$ref": "#/definitions/models.MarketUpdateRequest"
                        }
                    }
                ],
                "responses": {
                    "200": {
                        "description": ""
                    },
                    "500": {
                        "description": "Internal Server Error",
                        "schema": {
                            "$ref": "#/definitions/rest.Response"
                        }
                    }
                }
            },
            "post": {
                "description": "Create a new Market",
                "consumes": [
                    "application/json"
                ],
                "produces": [
                    "application/json"
                ],
                "summary": "Create Market",
                "parameters": [
                    {
                        "description": "Create Market",
                        "name": "market",
                        "in": "body",
                        "required": true,
                        "schema": {
                            "$ref": "#/definitions/models.MarketCreateRequest"
                        }
                    }
                ],
                "responses": {
                    "200": {
                        "description": ""
                    },
                    "500": {
                        "description": "Internal Server Error",
                        "schema": {
                            "$ref": "#/definitions/rest.Response"
                        }
                    }
                }
            }
        },
        "/market/:id": {
            "get": {
                "description": "Get all the existing market",
                "consumes": [
                    "application/json"
                ],
                "produces": [
                    "application/json"
                ],
                "summary": "Get existing market",
                "parameters": [
                    {
                        "type": "string",
                        "description": "Market ID",
                        "name": "id",
                        "in": "path",
                        "required": true
                    }
                ],
                "responses": {
                    "200": {
                        "description": "OK",
                        "schema": {
                            "$ref": "#/definitions/entities.Market"
                        }
                    },
                    "400": {
                        "description": "Bad Request",
                        "schema": {
                            "$ref": "#/definitions/rest.Response"
                        }
                    },
                    "404": {
                        "description": "Not Found",
                        "schema": {
                            "$ref": "#/definitions/rest.Response"
                        }
                    },
                    "500": {
                        "description": "Internal Server Error",
                        "schema": {
                            "$ref": "#/definitions/rest.Response"
                        }
                    }
                }
            }
        },
        "/market/{id}": {
            "delete": {
                "description": "Remove Market by ID",
                "consumes": [
                    "application/json"
                ],
                "produces": [
                    "application/json"
                ],
                "summary": "Remove Market",
                "responses": {
                    "200": {
                        "description": ""
                    },
                    "500": {
                        "description": "Internal Server Error",
                        "schema": {
                            "$ref": "#/definitions/rest.Response"
                        }
                    }
                }
            }
        },
        "/subprefecture": {
            "get": {
                "description": "Get all the existing Subprefecture",
                "consumes": [
                    "application/json"
                ],
                "produces": [
                    "application/json"
                ],
                "summary": "List existing Subprefecture",
                "responses": {
                    "200": {
                        "description": "OK",
                        "schema": {
                            "type": "array",
                            "items": {
                                "$ref": "#/definitions/entities.SubPrefecture"
                            }
                        }
                    },
                    "500": {
                        "description": "Internal Server Error",
                        "schema": {
                            "$ref": "#/definitions/rest.Response"
                        }
                    }
                }
            }
        }
    },
    "definitions": {
        "entities.District": {
            "type": "object",
            "properties": {
                "id": {
                    "type": "integer"
                },
                "name": {
                    "type": "string"
                },
                "subPrefectureID": {
                    "type": "integer"
                }
            }
        },
        "entities.Market": {
            "type": "object",
            "properties": {
                "Number": {
                    "type": "string"
                },
                "Street": {
                    "type": "string"
                },
                "area": {
                    "type": "string"
                },
                "createdAt": {
                    "type": "string"
                },
                "deletedAt": {
                    "type": "string"
                },
                "district": {
                    "$ref": "#/definitions/entities.District"
                },
                "districtID": {
                    "type": "integer"
                },
                "id": {
                    "type": "string"
                },
                "latitude": {
                    "type": "string"
                },
                "longitude": {
                    "type": "string"
                },
                "name": {
                    "type": "string"
                },
                "neighborhood": {
                    "type": "string"
                },
                "record": {
                    "type": "string"
                },
                "reference": {
                    "type": "string"
                },
                "setcents": {
                    "type": "string"
                },
                "subPrefecture": {
                    "$ref": "#/definitions/entities.SubPrefecture"
                },
                "subPrefectureID": {
                    "type": "integer"
                },
                "updatedAt": {
                    "type": "string"
                },
                "zone8": {
                    "type": "string"
                }
            }
        },
        "entities.SubPrefecture": {
            "type": "object",
            "properties": {
                "id": {
                    "type": "integer"
                },
                "name": {
                    "type": "string"
                },
                "zone": {
                    "type": "string"
                }
            }
        },
        "models.MarketCreateRequest": {
            "type": "object",
            "properties": {
                "districtID": {
                    "type": "integer"
                },
                "latitude": {
                    "type": "integer"
                },
                "longitude": {
                    "type": "integer"
                },
                "name": {
                    "type": "string"
                },
                "neighborhood": {
                    "type": "string"
                },
                "number": {
                    "type": "string"
                },
                "record": {
                    "type": "string"
                },
                "reference": {
                    "type": "string"
                },
                "setcents": {
                    "type": "string"
                },
                "street": {
                    "type": "string"
                },
                "subPrefectureID": {
                    "type": "integer"
                },
                "zone8": {
                    "type": "string"
                }
            }
        },
        "models.MarketUpdateRequest": {
            "type": "object",
            "properties": {
                "districtID": {
                    "type": "integer"
                },
                "latitude": {
                    "type": "integer"
                },
                "longitude": {
                    "type": "integer"
                },
                "name": {
                    "type": "string"
                },
                "neighborhood": {
                    "type": "string"
                },
                "number": {
                    "type": "string"
                },
                "reference": {
                    "type": "string"
                },
                "setcents": {
                    "type": "string"
                },
                "street": {
                    "type": "string"
                },
                "subPrefectureID": {
                    "type": "integer"
                },
                "zone8": {
                    "type": "string"
                }
            }
        },
        "rest.Response": {
            "type": "object",
            "properties": {
                "message": {
                    "type": "string"
                },
                "status": {
                    "type": "string"
                }
            }
        }
    }
}